# 3ds Max Wavefront OBJ Exporter v0.97b - (c)2007 guruware
# File Created: 07.11.2016 13:53:42

newmtl Material__92
	Ns 10.0000
	Ni 1.5000
	d 1.0000
	Tr 0.0000
	Tf 1.0000 1.0000 1.0000 
	illum 2
	Ka 0.0000 0.5882 0.5882
	Kd 0.0000 0.5882 0.5882
	Ks 0.0000 0.0000 0.0000
	Ke 0.0000 0.0000 0.0000

newmtl Material__86
	Ns 10.0000
	Ni 1.5000
	d 1.0000
	Tr 0.0000
	Tf 1.0000 1.0000 1.0000 
	illum 2
	Ka 0.0000 0.5020 1.0000
	Kd 0.0000 0.5020 1.0000
	Ks 0.0000 0.0000 0.0000
	Ke 0.0000 0.0000 0.0000

newmtl Material__90
	Ns 10.0000
	Ni 1.5000
	d 1.0000
	Tr 0.0000
	Tf 1.0000 1.0000 1.0000 
	illum 2
	Ka 0.8863 0.7098 0.0000
	Kd 0.8863 0.7098 0.0000
	Ks 0.0000 0.0000 0.0000
	Ke 0.0000 0.0000 0.0000

newmtl wire_224198087
	Ns 32
	d 1
	Tr 0
	Tf 1 1 1
	illum 2
	Ka 0.8784 0.7765 0.3412
	Kd 0.8784 0.7765 0.3412
	Ks 0.3500 0.3500 0.3500

newmtl Material__87
	Ns 10.0000
	Ni 1.5000
	d 1.0000
	Tr 0.0000
	Tf 1.0000 1.0000 1.0000 
	illum 2
	Ka 0.8471 0.0000 0.5765
	Kd 0.8471 0.0000 0.5765
	Ks 0.0000 0.0000 0.0000
	Ke 0.0000 0.0000 0.0000

newmtl Material__91
	Ns 13.0000
	Ni 1.5000
	d 1.0000
	Tr 0.0000
	Tf 1.0000 1.0000 1.0000 
	illum 2
	Ka 0.2510 0.2510 0.2510
	Kd 0.2510 0.2510 0.2510
	Ks 0.3780 0.3780 0.3780
	Ke 0.0000 0.0000 0.0000

newmtl Material__93
	Ns 7.0000
	Ni 1.5000
	d 1.0000
	Tr 0.0000
	Tf 1.0000 1.0000 1.0000 
	illum 2
	Ka 0.3922 0.3922 0.3922
	Kd 0.3922 0.3922 0.3922
	Ks 0.5670 0.5670 0.5670
	Ke 0.0000 0.0000 0.0000

newmtl Material__88
	Ns 10.0000
	Ni 1.5000
	d 1.0000
	Tr 0.0000
	Tf 1.0000 1.0000 1.0000 
	illum 2
	Ka 1.0000 0.8980 0.8000
	Kd 1.0000 0.8980 0.8000
	Ks 0.0000 0.0000 0.0000
	Ke 0.0000 0.0000 0.0000

newmtl Material__89
	Ns 32.0000
	Ni 1.5000
	d 1.0000
	Tr 0.0000
	Tf 1.0000 1.0000 1.0000 
	illum 2
	Ka 0.0549 0.2667 0.2941
	Kd 0.0549 0.2667 0.2941
	Ks 0.5490 0.5490 0.5490
	Ke 0.0000 0.0000 0.0000
